﻿{
  "$schema": "http://json.schemastore.org/launchsettings.json",
  "profiles": {
    "Authenticator": {
      "commandName": "Project",
      "applicationUrl": "http://localhost:5001",
      "environmentVariables": {
        "ASPNETCORE_ENVIRONMENT": "Development"
      }
    }
  }
}